{
  "dbConfig": {
    "user": "root",
    "password": "3nations",
    "host": "127.0.0.1",
    "hostReadOnly": "127.0.0.1",
    "port": 3306,
    "database": "wrap-box",
    "metadata": true,
    "charset": "utf8",
    "poolMaxSize": 10,
    "poolIdleTimeout": 30,
    "deadlockRetryCount": 1,
    "deadlockRetryDelay": 0
  },
  "stripe": {
    "apiUrl": "",
    "publicKey": "",
    "privateKey": ""
  },
  "logMethod": "FILE",  // can be FILE, LOGGLY; LOGGLY used for log error
  "root": "",
  "limit": 10,
  "jwtSecretKey": "l0FYZSlv4HsAQPCE98Fk8j0Bu4E3M4AXUVUrRcX313tUtK2k6T",
  "smtp": {
    "domain": "sandbox0b074269bb8543fc81c4acb42e48c79d.mailgun.org",
    "host": "smtp.mailgun.org",
    "user": "postmaster@sandbox0b074269bb8543fc81c4acb42e48c79d.mailgun.org",
    "password": "85a49ffcd55502bdac47af30b8a9909aManage",
    "apikey": "key-a65fd6f4870a2ac60ccadf674be31faf"
  }
}