{
  "appenders": [
    {
      "category": "default",
      "type": "console"
    },
    {
      "category": "default",
      "type": "logLevelFilter",
      "level": "ERROR",
      "maxLevel": "ERROR",
      "appender": {
        "type": "dateFile",
        "filename": "logs/error",
        "maxLogSize": 10485760,
        "numBackups": 3,
        "pattern": "-yyyy-MM-dd.log",
        "alwaysIncludePattern": true,
        "category": "default"
      }
    },
    {
      "category": "default",
      "type": "logLevelFilter",
      "level": "INFO",
      "maxLevel": "INFO",
      "appender": {
        "type": "dateFile",
        "filename": "logs/info",
        "maxLogSize": 10485760,
        "numBackups": 3,
        "pattern": "-yyyy-MM-dd.log",
        "alwaysIncludePattern": true,
        "category": "default"
      }
    },
    {
      "type": "logLevelFilter",
      "level": "DEBUG",
      "maxLevel": "DEBUG",
      "appender": {
        "type": "dateFile",
        "filename": "logs/debug",
        "maxLogSize": 10485760,
        "numBackups": 3,
        "pattern": "_yyyy_MM_dd.log",
        "alwaysIncludePattern": true,
        "category": "default"
      }
    },
    {
      "category": "loggly",
      "type": "loggly",
      "token": "126c81e7-dcbe-4458-b43c-6e7c160b6c34",
      "subdomain": "wrapbox",
      "tags": [
        "Wrap-Box"
      ],
      "json": true
    },
    {
      "category": "mailgun",
      "type": "mailgun",
      "apikey": "key-a65fd6f4870a2ac60ccadf674be31faf",
      "domain": "sandbox0b074269bb8543fc81c4acb42e48c79d.mailgun.org",
      "from": "Wrapbox Error <mailgun@sandbox0b074269bb8543fc81c4acb42e48c79d.mailgun.org>",
      "to": "minhnhat2807@gmail.com",
      "subject": "Error"
    }
  ]
}